ILS03C:38.7733120:-9.1402180:23.5
ILS03:38.7663889:-9.1438889:23.5
ILS35:38.7686111:-9.1325000:352.0
ILS35C:38.7655556:-9.1316667:352.0

AIRPORT_ALT:374

CONTROLLER:LPPC_W_CTR:128.900
CONTROLLER:LPPO_FSS:127.900
CONTROLLER:LPPR_APP:121.100
CONTROLLER:LPPR_TWR:118.000
CONTROLLER:LPFR_APP:119.400
CONTROLLER:LPFR_TWR:120.350
CONTROLLER:LPMA_APP:119.200
CONTROLLER:LPMA_TWR:118.350
CONTROLLER:LPCS_TWR:120.300
CONTROLLER:LPPT_APP:119.100
CONTROLLER:LECM_C_CTR:133.750

HOLDING:LAR:207:1
HOLDING:FTM:221:-1
HOLDING:ESP:32:1
HOLDING:EKMAR:44:-1
HOLDING:RINOR:226:-1
HOLDING:UMUPI:183:1

PERFAC:A319
PERFLINE:030:200:200:200:000:000:000:2500:1200
PERFLINE:100:250:250:250:000:000:000:2200:2800
PERFLINE:150:295:300:280:000:000:000:2200:2400
PERFLINE:200:295:300:280:000:000:000:1800:2200
PERFLINE:250:295:300:280:000:000:000:1500:2050
PERFLINE:300:295:300:280:000:000:000:1000:2000
PERFLINE:350:000:000:000:078:078:076:1000:1800
PERFLINE:400:000:000:000:078:078:076:1000:1400
PERFLINE:070:220:220:220:000:000:000:2500:1500

PERFAC:B763
PERFLINE:030:190:230:210:000:000:000:3000:1500
PERFLINE:050:220:250:210:000:000:000:2800:1500
PERFLINE:100:250:250:250:000:000:000:2600:1800
PERFLINE:150:300:310:280:000:000:000:2400:2000
PERFLINE:200:300:310:280:000:000:000:3200:2000
PERFLINE:250:300:310:280:000:000:000:2000:2200
PERFLINE:300:000:000:000:080:080:080:1800:2200
PERFLINE:350:000:000:000:080:080:080:1600:2500
PERFLINE:400:000:000:000:080:080:080:1400:2800

PERFAC:A321
PERFLINE:030:180:180:170:000:000:000:2500:1300
PERFLINE:050:180:180:180:000:000:000:2500:1500
PERFLINE:100:250:250:250:000:000:000:2200:1800
PERFLINE:150:285:300:280:000:000:000:2000:2200
PERFLINE:200:285:300:280:000:000:000:2000:2350
PERFLINE:250:285:300:280:000:000:000:1800:2400
PERFLINE:300:285:300:280:000:000:000:1700:2500
PERFLINE:350:000:000:000:078:078:076:1100:2600
PERFLINE:400:000:000:000:078:078:076:0700:2700

PERFAC:A320
PERFLINE:030:200:200:200:000:000:000:2500:1200
PERFLINE:100:250:250:250:000:000:000:2200:1500
PERFLINE:150:295:300:280:000:000:000:2000:2300
PERFLINE:200:295:300:280:000:000:000:1800:2350
PERFLINE:250:295:300:280:000:000:000:1500:2500
PERFLINE:300:295:300:280:000:000:000:1500:2500
PERFLINE:350:000:000:000:078:078:076:1200:2600
PERFLINE:400:000:000:000:078:078:076:0900:2700
PERFLINE:070:220:220:220:000:000:000:2500:1500

PERFAC:A333
PERFLINE:030:190:250:170:000:000:000:2000:1000
PERFLINE:050:220:250:210:000:000:000:2000:1500
PERFLINE:100:250:250:250:000:000:000:2000:2000
PERFLINE:150:290:300:290:000:000:000:1800:2500
PERFLINE:200:290:300:290:000:000:000:1400:2200
PERFLINE:250:290:300:290:000:000:000:1300:2000
PERFLINE:300:000:000:000:082:082:080:1000:2100
PERFLINE:350:000:000:000:082:082:080:1000:2200
PERFLINE:400:000:000:000:082:082:080:1000:2300

PERFAC:A343
PERFLINE:030:180:180:180:000:000:000:1250:0800
PERFLINE:050:180:180:180:000:000:000:1400:1500
PERFLINE:100:250:250:250:000:000:000:1450:1550
PERFLINE:150:310:330:300:000:000:000:1300:1800
PERFLINE:200:310:330:300:000:000:000:1200:2000
PERFLINE:250:310:330:300:000:000:000:0950:2000
PERFLINE:300:000:000:000:081:083:082:0700:2100
PERFLINE:350:000:000:000:081:083:082:0500:2000
PERFLINE:400:000:000:000:081:083:083:0300:1700

PERFAC:A310
PERFLINE:030:200:210:170:000:000:000:2500:1500
PERFLINE:050:220:250:210:000:000:000:2500:2000
PERFLINE:100:250:250:250:000:000:000:3000:2000
PERFLINE:150:300:325:290:000:000:000:3000:2000
PERFLINE:200:300:325:290:000:000:000:2800:2000
PERFLINE:250:300:325:290:000:000:000:2700:2400
PERFLINE:300:000:000:000:079:081:080:1700:2300
PERFLINE:350:000:000:000:079:081:080:1400:2100
PERFLINE:400:000:000:000:079:081:080:0900:2000

PERFAC:B752
PERFLINE:030:180:180:180:000:000:000:3500:1200
PERFLINE:050:180:180:180:000:000:000:3200:1500
PERFLINE:100:250:250:250:000:000:000:3200:1800
PERFLINE:150:270:310:280:000:000:000:3000:2000
PERFLINE:200:290:310:280:000:000:000:2500:2200
PERFLINE:250:299:310:280:000:000:000:2500:2500
PERFLINE:300:000:000:000:080:080:078:2200:2500
PERFLINE:350:000:000:000:080:080:078:1900:2600
PERFLINE:400:000:000:000:080:080:078:1000:2400

PERFAC:B753
PERFLINE:030:190:230:210:000:000:000:2800:1300
PERFLINE:050:230:250:210:000:000:000:2900:1500
PERFLINE:100:250:250:250:000:000:000:3000:1800
PERFLINE:150:270:310:280:000:000:000:3200:2000
PERFLINE:200:290:310:280:000:000:000:3300:2000
PERFLINE:250:299:310:280:000:000:000:2500:2500
PERFLINE:300:000:000:000:080:080:078:2300:2500
PERFLINE:350:000:000:000:080:080:078:1500:2700
PERFLINE:400:000:000:000:080:080:078:0800:2500

@N:TAP564C:4115:1:39.312560:-6.373225:32000:410:0:0:0
$FPTAP564C:*A:I:A319:0:LEMD:0000:0000:32000:LPPT:00:00:0:0:LPPR:/v/:CCS DCT EXONA
$ROUTE:EXONA ADSAD GODGI PT421 PESEX
DELAY:3:7
REQALT:EXONA:32000

@S:TOM465:2200:1:38.767868:-9.136995:374:0:0:0:0
$FPTOM465:*A:I:B763:0:LPPT:0000:0000:15000:LPFR:00:00:0:0:LPPT:/v/:TROIA A5 ODEMI
$ROUTE:PT412 MONUR TROIA
DELAY:3:7
REQALT:TROIA:15000

@N:TAP344:4173:1:43.678478:-6.390057:37000:400:0:0:0
$FPTAP344:*A:I:A319:0:LFPO:0000:0000:37000:LPPT:00:00:0:0:LPPR:/v/:LGL UT176 KURIS UN872 ERIGA UZ218 BAKUP DCT BATAX DCT INBOM
$ROUTE:INBOM FTM PT405 ODLIX PT420 PT421 PESEX
DELAY:3:7
REQALT:INBOM:37000

@S:TAP1985:2200:1:38.768975:-9.130550:374:0:0:0:0
$FPTAP1985:*A:I:A321:0:LPPT:0000:0000:34000:LFPG:00:00:0:0::/v/:ABRAT UN745 ZMR UN873 MOKOR UN741 ANG UN741 KEPER
$ROUTE:PT412 ABRAT
DELAY:3:7
REQALT:ABRAT:24000

@N:IBE595:4166:1:38.902689:-8.020516:21000:410:0:0:0
$FPIBE595:*A:I:A320:0:LEMD:0000:0000:32000:LPPT:00:00:0:0:LPPR:/v/:CCS DCT EXONA
$ROUTE:ADSAD GODGI PT421 PESEX
DELAY:3:7
REQALT:EXONA:21000

@S:IBE563:2200:1:38.774955:-9.131330:374:0:0:0:0
$FPIBE563:*A:I:A333:0:LPPT:0000:0000:31000:LEMD:00:00:0:0:LPFR:/v/:IDBID DCT RAKOD UH90 TLD
$ROUTE:PT412 IDBID
DELAY:3:7
REQALT:IDBID:24000

@N:RYR2094:4173:1:43.039452:-6.683929:37000:400:0:0:0
$FPRYR2094:*A:I:A319:0:LFPO:0000:0000:37000:LPPT:00:00:0:0:LPPR:/v/:LGL UT176 KURIS UN872 ERIGA UZ218 BAKUP DCT BATAX DCT INBOM
$ROUTE:INBOM FTM PT405 ODLIX PT420 PT421 PESEX
DELAY:3:7
REQALT:INBOM:37000

@S:TAP487:2200:1:38.775546:-9.131531:374:0:0:0:0
$FPTAP487:*A:I:A343:0:LPPT:0000:0000:18000:LPFR:00:00:0:0::/v/:TROIA A5 ODEMI
$ROUTE:PT412 MONUR TROIA
DELAY:3:7
REQALT:TROIA:24000

@S:RZO4589:2200:1:38.765185:-9.136854:374:0:0:0:0
$FPRZO4589:*A:I:A310:0:LPPT:0000:0000:36000:LPPD:00:00:0:0:LPLA:/v/:BUSEN UZ20 KOMUT DCT 3820N DCT BEKUN DCT NAVPO
$ROUTE:PT412 MONUR BUSEN
DELAY:3:7
REQALT:BUSEN:24000

@N:BAW546:4170:1:37.855811:-8.655909:18000:320:0:0:0
$FPBAW546:*A:I:B763:0:LPFR:0000:0000:18000:LPPT:00:00:0:0:LPFR:/v/:ODEMI A5 TROIA
$ROUTE:TROIA ADSAD GODGI PT421 PESEX
DELAY:3:7
REQALT:TROIA:18000

@S:COA64:2200:1:38.768699:-9.139234:374:0:0:0:0
$FPCOA64:*A:I:B752:0:LPPT:0000:0000:40000:KEWR:00:00:0:0:KJFK:/v/:ESP UM744 BUSEN UZ22 ERPES DCT 4120N DCT 4130N DCT 4140N DCT 4150N DCT 4160N DCT DOVEY N18C SAILE DCT BOS DCT BDL SHAFF6
$ROUTE:PT412 MONUR ESP
DELAY:3:7
REQALT:ESP:24000

@N:RZO225:4173:1:42.373640:-7.007806:37000:400:0:0:0
$FPRZO225:*A:I:A319:0:LFPO:0000:0000:37000:LPPT:00:00:0:0:LPPR:/v/:LGL UT176 KURIS UN872 ERIGA UZ218 BAKUP DCT BATAX DCT INBOM
$ROUTE:INBOM FTM PT405 ODLIX PT420 PT421 PESEX
DELAY:3:7
REQALT:INBOM:37000

@S:TAP356:2200:1:38.772137:-9.131423:0:0:0:0:0
$FPTAP356:*A:I:A321:0:LPPT:0000:0000:38000:EGLL:00:00:0:0:EGKK:/v/:INBOM DCT TURON UP600 STG UN866 QPR UN472 JSY UT220 AKIKI UN867 KATHY
$ROUTE:PT412 INBOM TURON
DELAY:3:7
REQALT:INBOM:24000

@N:TAP268:4173:1:40.476951:-8.055298:37000:400:0:0:0
$FPTAP268:*A:I:A319:0:LFPO:0000:0000:37000:LPPT:00:00:0:0:LPPR:/v/:LGL UT176 KURIS UN872 ERIGA UZ218 BAKUP DCT BATAX DCT INBOM
$ROUTE:INBOM FTM PT405 ODLIX PT420 PT421 PESEX
DELAY:3:7
REQALT:INBOM:37000

@N:EJU78VZ:4173:1:41.747306:-7.391434:37000:400:0:0:0
$FPEJU78VZ:*A:I:A319:0:LFPO:0000:0000:37000:LPPT:00:00:0:0:LPPR:/v/:LGL UT176 KURIS UN872 ERIGA UZ218 BAKUP DCT BATAX DCT INBOM
$ROUTE:INBOM FTM PT405 ODLIX PT420 PT421 PESEX
DELAY:3:7
REQALT:INBOM:37000

@S:BAW499:2200:1:38.773885:-9.131087:374:0:0:0:0
$FPBAW499:*A:I:A319:0:LPPT:0000:0000:36000:EGLL:00:00:0:0:EGGW:/v/:INBOM DCT TURON UP600 STG UN866 QPR UN472 JSY UT220 AKIKI UN867 KATHY
$ROUTE:PT412 INBOM TURON
DELAY:3:7
REQALT:INBOM:24000

@N:IBE75D:4175:1:39.121017:-7.169793:32000:410:0:0:0
$FPIBE75D:*A:I:A319:0:LEMD:0000:0000:32000:LPPT:00:00:0:0:LPPR:/v/:CCS DCT EXONA
$ROUTE:EXONA ADSAD GODGI PT421 PESEX
DELAY:3:7
REQALT:EXONA:32000

@N:BAW500:4176:1:39.827859:-8.417832:25000:400:0:0:0
$FPBAW500:*A:I:B753:0:EGLL:0000:0000:25000:LPPT:00:00:0:0:LPFR:/v/:GASGU N866 SAM M195 LORKU UN866 QPR UM30 ERWAN UN480 BALDA DCT ABUPI DCT XAMAX
$ROUTE:FTM PT405 ODLIX PT420 PT421 PESEX
DELAY:3:7
REQALT:FTM:25000

@N:TAP449A:4173:1:41.122121:-7.747613:37000:400:0:0:0
$FPTAP449A:*A:I:A319:0:LFPO:0000:0000:37000:LPPT:00:00:0:0:LPPR:/v/:LGL UT176 KURIS UN872 ERIGA UZ218 BAKUP DCT BATAX DCT INBOM
$ROUTE:INBOM FTM PT405 ODLIX PT420 PT421 PESEX
DELAY:3:7
REQALT:INBOM:37000

@S:EIN696:2200:1:38.770207:-9.136171:374:0:0:0:0
$FPEIN696:*A:I:A320:0:LPPT:0000:0000:35000:EIDW:00:00:0:0::/v/:INBOM DCT TURON UP600 BEGAS T9 LASNO UP600 CRK UN160 SHA W12 OSGAR
$ROUTE:PT412 INBOM TURON
DELAY:3:7
REQALT:INBOM:24000

@N:BAW496G:4172:1:39.609096:-5.559625:32000:410:0:0:0
$FPBAW496G:*A:I:A319:0:LEMD:0000:0000:32000:LPPT:00:00:0:0:LPPR:/v/:CCS DCT EXONA
$ROUTE:EXONA ADSAD GODGI PT421 PESEX
DELAY:3:7
REQALT:EXONA:32000

@N:DLH451:4173:1:39.886429:-4.792244:32000:410:0:0:0
$FPDLH451:*A:I:A319:0:LEMD:0000:0000:32000:LPPT:00:00:0:0:LPPR:/v/:CCS DCT EXONA
$ROUTE:EXONA ADSAD GODGI PT421 PESEX
DELAY:3:7
REQALT:EXONA:32000

@N:RZO457:4177:1:40.155057:-3.985448:32000:410:0:0:0
$FPRZO457:*A:I:A319:0:LEMD:0000:0000:32000:LPPT:00:00:0:0:LPPR:/v/:CCS DCT EXONA
$ROUTE:EXONA ADSAD GODGI PT421 PESEX
DELAY:3:7
REQALT:EXONA:32000

@N:RZO569:4174:1:40.392331:-3.185229:32000:410:0:0:0
$FPRZO569:*A:I:A319:0:LEMD:0000:0000:32000:LPPT:00:00:0:0:LPPR:/v/:CCS DCT EXONA
$ROUTE:EXONA ADSAD GODGI PT421 PESEX
DELAY:3:7
REQALT:EXONA:32000

