ILS03C:38.7733120:-9.1402180:23.5
ILS03:38.7663889:-9.1438889:23.5
ILS35:38.7186590:-9.3528520:345.5
ILS35C:38.7204060:-9.3534910:345.5

AIRPORT_ALT:374

CONTROLLER:LPPC_W_CTR:128.900
CONTROLLER:LPPO_FSS:127.900
CONTROLLER:LPPR_APP:121.100
CONTROLLER:LPPR_TWR:118.000
CONTROLLER:LPFR_APP:119.400
CONTROLLER:LPFR_TWR:120.350
CONTROLLER:LPMA_APP:119.200
CONTROLLER:LPMA_TWR:118.350
CONTROLLER:LPCS_TWR:120.300
CONTROLLER:LPPT_APP:119.100
CONTROLLER:LECM_C_CTR:133.750

HOLDING:PINIM:114:1
HOLDING:ADSAD:344:1
HOLDING:EKMAR:44:-1
HOLDING:PESEX:26:1
HOLDING:UMUPI:182:1
HOLDING:ESP:31:1
HOLDING:CROCA:90:1

PERFAC:A319
PERFLINE:030:200:200:200:000:000:000:2500:1200
PERFLINE:100:250:250:250:000:000:000:2200:2800
PERFLINE:150:295:300:280:000:000:000:2200:2400
PERFLINE:200:295:300:280:000:000:000:1800:2200
PERFLINE:250:295:300:280:000:000:000:1500:2050
PERFLINE:300:295:300:280:000:000:000:1000:2000
PERFLINE:350:000:000:000:078:078:076:1000:1800
PERFLINE:400:000:000:000:078:078:076:1000:1400
PERFLINE:070:220:220:220:000:000:000:2500:1500

PERFAC:G115
PERFLINE:010:070:090:080:000:000:000:0600:0600
PERFLINE:050:070:090:080:000:000:000:0600:0600
PERFLINE:080:070:100:080:000:000:000:0200:0200

PERFAC:C172
PERFLINE:030:080:100:090:000:000:000:0700:0700
PERFLINE:050:080:105:090:000:000:000:0600:0800
PERFLINE:100:080:105:080:000:000:000:0550:0900
PERFLINE:150:070:100:080:000:000:000:0500:0900
PERFLINE:200:070:100:080:000:000:000:0000:0000
PERFLINE:250:070:100:080:000:000:000:0000:0000
PERFLINE:300:070:100:080:000:000:000:0000:0000
PERFLINE:350:070:100:080:000:000:000:0000:0000
PERFLINE:400:070:100:080:000:000:000:0000:0000

PERFAC:A320
PERFLINE:030:200:200:200:000:000:000:2500:1200
PERFLINE:100:250:250:250:000:000:000:2200:1500
PERFLINE:150:295:300:280:000:000:000:2000:2300
PERFLINE:200:295:300:280:000:000:000:1800:2350
PERFLINE:250:295:300:280:000:000:000:1500:2500
PERFLINE:300:295:300:280:000:000:000:1500:2500
PERFLINE:350:000:000:000:078:078:076:1200:2600
PERFLINE:400:000:000:000:078:078:076:0900:2700
PERFLINE:070:220:220:220:000:000:000:2500:1500

PERFAC:B738
PERFLINE:030:180:180:180:000:000:000:2800:1200
PERFLINE:050:180:180:180:000:000:000:3000:1500
PERFLINE:100:220:250:250:000:000:000:2600:1500
PERFLINE:150:280:280:280:000:000:000:2200:1800
PERFLINE:200:280:280:280:000:000:000:2000:2200
PERFLINE:250:280:280:280:000:000:000:2000:2400
PERFLINE:300:000:000:000:078:079:078:1300:2400
PERFLINE:350:000:000:000:078:079:078:1050:2900
PERFLINE:400:000:000:000:078:079:078:0700:2800

PERFAC:A333
PERFLINE:030:190:250:170:000:000:000:2000:1000
PERFLINE:050:220:250:210:000:000:000:2000:1500
PERFLINE:100:250:250:250:000:000:000:2000:2000
PERFLINE:150:290:300:290:000:000:000:1800:2500
PERFLINE:200:290:300:290:000:000:000:1400:2200
PERFLINE:250:290:300:290:000:000:000:1300:2000
PERFLINE:300:000:000:000:082:082:080:1000:2100
PERFLINE:350:000:000:000:082:082:080:1000:2200
PERFLINE:400:000:000:000:082:082:080:1000:2300

PERFAC:B763
PERFLINE:030:190:230:210:000:000:000:3000:1500
PERFLINE:050:220:250:210:000:000:000:2800:1500
PERFLINE:100:250:250:250:000:000:000:2600:1800
PERFLINE:150:300:310:280:000:000:000:2400:2000
PERFLINE:200:300:310:280:000:000:000:3200:2000
PERFLINE:250:300:310:280:000:000:000:2000:2200
PERFLINE:300:000:000:000:080:080:080:1800:2200
PERFLINE:350:000:000:000:080:080:080:1600:2500
PERFLINE:400:000:000:000:080:080:080:1400:2800

PERFAC:A321
PERFLINE:030:180:180:170:000:000:000:2500:1300
PERFLINE:050:180:180:180:000:000:000:2500:1500
PERFLINE:100:250:250:250:000:000:000:2200:1800
PERFLINE:150:285:300:280:000:000:000:2000:2200
PERFLINE:200:285:300:280:000:000:000:2000:2350
PERFLINE:250:285:300:280:000:000:000:1800:2400
PERFLINE:300:285:300:280:000:000:000:1700:2500
PERFLINE:350:000:000:000:078:078:076:1100:2600
PERFLINE:400:000:000:000:078:078:076:0700:2700

PERFAC:B753
PERFLINE:030:190:230:210:000:000:000:2800:1300
PERFLINE:050:230:250:210:000:000:000:2900:1500
PERFLINE:100:250:250:250:000:000:000:3000:1800
PERFLINE:150:270:310:280:000:000:000:3200:2000
PERFLINE:200:290:310:280:000:000:000:3300:2000
PERFLINE:250:299:310:280:000:000:000:2500:2500
PERFLINE:300:000:000:000:080:080:078:2300:2500
PERFLINE:350:000:000:000:080:080:078:1500:2700
PERFLINE:400:000:000:000:080:080:078:0800:2500

PERFAC:C550
PERFLINE:030:215:240:180:000:000:000:1500:0700
PERFLINE:050:225:250:210:000:000:000:1500:1200
PERFLINE:100:230:265:230:000:000:000:1500:1500
PERFLINE:150:230:265:230:000:000:000:1800:1700
PERFLINE:200:230:265:240:000:000:000:1800:1900
PERFLINE:250:230:265:250:000:000:000:1800:2200
PERFLINE:300:000:000:000:063:067:063:1200:2400
PERFLINE:350:000:000:000:065:067:063:0700:2300
PERFLINE:400:000:000:000:067:067:063:0400:1700

PERFAC:PA34
PERFLINE:030:120:120:100:000:000:000:1200:0600
PERFLINE:050:120:150:150:000:000:000:0800:1000
PERFLINE:100:120:150:150:000:000:000:0650:1000
PERFLINE:150:120:150:150:000:000:000:0650:1100
PERFLINE:200:120:145:140:000:000:000:0600:1200
PERFLINE:250:100:130:130:000:000:000:0100:1200
PERFLINE:300:100:130:130:000:000:000:0000:0400
PERFLINE:350:100:130:130:000:000:000:0000:0400
PERFLINE:400:100:130:130:000:000:000:0000:0400

@N:TAP564C:4115:1:40.222487:-4.525808:25000:410:0:0:0
$FPTAP564C:*A:I:A319:0:LEMD:0000:0000:32000:LPPT:00:00:0:0:LPPR:/v/:CCS DCT EXONA
$ROUTE:EXONA ADSAD GODGI PT421 PESEX
DELAY:3:7
REQALT:EXONA:25000

@N:WEY359:2000:1:38.721169:-9.357775:374:0:0:0:0
$FPWEY359:*A:V:G115:90:LPCS:0000:0000:1000:LPCS:00:00:0:0:LPPT:/v/:CCAIS
$ROUTE:CAS
DELAY:3:7

@N:CSAUD:4173:1:38.083040:-8.884286:10000:105:0:0:0
$FPCSAUD:*A:I:C172:0:LPPM:0000:0000:10000:LPVZ:00:00:0:0:LPPM:/v/:VFA A5 ESP G52 NSA VIS
$ROUTE:ESP NSA VIS
DELAY:3:7
REQALT:ESP:10000

@N:TAP1907:2000:1:38.768938:-9.130448:374:0:0:0:0
$FPTAP1907:*A:I:A319:0:LPPT:0000:0000:18000:LPFR:00:00:0:0::/v/:TROIA A5 ODEMI
$ROUTE:PT544 PT412 MONUR TROIA ODEMI VFA
DELAY:3:7
REQALT:TROIA:6000

@N:IBE595:4166:1:39.000445:-7.820638:21000:410:0:0:0
$FPIBE595:*A:I:A320:0:LEMD:0000:0000:32000:LPPT:00:00:0:0:LPPR:/v/:CCS DCT EXONA
$ROUTE:ADSAD GODGI PT421 PESEX
DELAY:3:7
REQALT:EXONA:21000

@N:RYR2623:2000:1:38.764489:-9.137063:374:0:0:0:0
$FPRYR2623:*A:I:B738:405:LPPT:0000:0000:36000:LPPD:00:00:0:0:LPLA:/v/:BUSEN DCT GUNTI/M080F380 T25 LENSI DCT BEKUN
$ROUTE:PT544 PT416 MONUR BUSEN GUNTI
DELAY:3:7
REQALT:BUSEN:6000

@N:RYR2094:4173:1:43.229437:-6.501066:25000:400:0:0:0
$FPRYR2094:*A:I:A319:0:LFPO:0000:0000:37000:LPPT:00:00:0:0:LPPR:/v/:LGL UT176 KURIS UN872 ERIGA UZ218 BAKUP DCT BATAX DCT INBOM
$ROUTE:INBOM FTM PT405 ODLIX PT420 PT421 PESEX
DELAY:3:7
REQALT:INBOM:25000

@N:TAP011:2000:1:38.775546:-9.131531:374:0:0:0:0
$FPTAP011:*A:I:A333:470:LPPT:0000:0000:32000:SBRF:00:00:0:0::/v/:NAKOS DCT BEXAL/N0467F330 DCT SAMAR/N0465F340 UN873 LIMAL/M080F340 UN873 CVS/M080F360 UN873 SALPU/M080F380 UN873 VUNOK/N0464F380 UN873 FEMUR DCT ESGUM
$ROUTE:PT544 PT412 MONUR NAKOS BEXAL
DELAY:3:7
REQALT:NAKOS:6000

@N:RZO131:2000:1:38.767851:-9.139291:374:0:0:0:0
$FPRZO131:*A:I:A320:0:LPPT:0000:0000:36000:LPLA:00:00:0:0:LPPD:/v/:BUSEN DCT GUNTI/M078F380 DCT 39N020W DCT BAVAS/M078F280 H121 LM
$ROUTE:PT544 PT416 MONUR BUSEN GUNTI
DELAY:3:7
REQALT:BUSEN:6000

@N:BAW546:4170:1:37.855811:-8.655909:18000:320:0:0:0
$FPBAW546:*A:I:B763:0:LPFR:0000:0000:18000:LPPT:00:00:0:0:LPFR:/v/:ODEMI A5 TROIA
$ROUTE:TROIA ADSAD GODGI PT421 PESEX
DELAY:3:7
REQALT:TROIA:18000

@N:WEY257:2000:1:38.721567:-9.357747:374:0:0:0:0
$FPWEY257:*A:V:G115:90:LPCS:0000:0000:1500:LPCS:00:00:0:0:LPPT:/v/:CCAIS
$ROUTE:CAS CROCA
DELAY:3:7

@N:RZO225:4173:1:42.173031:-7.029069:25000:400:0:0:0
$FPRZO225:*A:I:A319:0:LFPO:0000:0000:37000:LPPT:00:00:0:0:LPPR:/v/:LGL UT176 KURIS UN872 ERIGA UZ218 BAKUP DCT BATAX DCT INBOM
$ROUTE:INBOM FTM PT405 ODLIX PT420 PT421 PESEX
DELAY:3:7
REQALT:INBOM:25000

@N:TAP131P:2000:1:38.772986:-9.131519:374:0:0:0:0
$FPTAP131P:*A:I:A321:403:LPPT:0000:0000:38000:EGCC:00:00:0:0::/v/:INBOM DCT PINEK/M077F370 DCT BEGAS/M077F370 T9 LASNO/M077F370 DCT EMPER DCT MAPAG DCT LIFFY/N0360F190 L975 LYNAS
$ROUTE:PT544 PT412 USIVI INBOM PINEK
DELAY:3:7
REQALT:INBOM:6000

@N:TAP268:4173:1:40.905322:-7.733630:25000:400:0:0:0
$FPTAP268:*A:I:A319:0:LFPO:0000:0000:37000:LPPT:00:00:0:0:LPPR:/v/:LGL UT176 KURIS UN872 ERIGA UZ218 BAKUP DCT BATAX DCT INBOM
$ROUTE:INBOM FTM PT405 ODLIX PT420 PT421 PESEX
DELAY:3:7
REQALT:INBOM:25000

@N:EJU78VZ:4173:1:43.283972:-6.657358:25000:400:0:0:0
$FPEJU78VZ:*A:I:A319:0:LFPO:0000:0000:37000:LPPT:00:00:0:0:LPPR:/v/:LGL UT176 KURIS UN872 ERIGA UZ218 BAKUP DCT BATAX DCT XAMAX
$ROUTE:XAMAX UMUPI EKMAR PT420 PT421 PESEX
DELAY:3:7
REQALT:INBOM:25000

@N:BAW503:2000:1:38.773788:-9.131165:374:0:0:0:0
$FPBAW503:*A:I:A319:403:LPPT:0000:0000:36000:EGLL:00:00:0:0:EGGW:/v/:INBOM DCT PINEK/N0440F340 DCT KORUL UN866 QPR UN472 REVTU UP87 ROXOG
$ROUTE:PT544 PT412 USIVI INBOM PINEK
DELAY:3:7
REQALT:INBOM:6000

@N:IBE75D:4175:1:39.643119:-6.162132:25000:410:0:0:0
$FPIBE75D:*A:I:A319:0:LEMD:0000:0000:32000:LPPT:00:00:0:0:LPPR:/v/:CCS DCT EXONA
$ROUTE:EXONA ADSAD GODGI PT421 PESEX
DELAY:3:7
REQALT:EXONA:25000

@N:BAW500:4176:1:39.827859:-8.417832:25000:400:0:0:0
$FPBAW500:*A:I:B753:0:EGLL:0000:0000:25000:LPPT:00:00:0:0:LPFR:/v/:GASGU N866 SAM M195 LORKU UN866 QPR UM30 ERWAN UN480 BALDA DCT ABUPI DCT XAMAX
$ROUTE:FTM PT405 ODLIX PT420 PT421 PESEX
DELAY:3:7
REQALT:FTM:25000

@N:TAP449A:4173:1:44.670339:-5.877545:25000:400:0:0:0
$FPTAP449A:*A:I:A319:0:LFPO:0000:0000:37000:LPPT:00:00:0:0:LPPR:/v/:LGL UT176 KURIS UN872 ERIGA UZ218 BAKUP DCT BATAX DCT INBOM
$ROUTE:INBOM FTM PT405 ODLIX PT420 PT421 PESEX
DELAY:3:7
REQALT:INBOM:25000

@N:TAP1452:2000:1:38.765685:-9.133847:374:0:0:0:0
$FPTAP1452:*A:I:A321:437:LPPT:0000:0000:23000:GMMX:00:00:0:0::/v/:TROIA A5 ODEMI/N0440F370 DCT AMSEL UR722 LAKAM UR722 MABAP
$ROUTE:PT544 PT412 MONUR TROIA ODEMI AMSEL
DELAY:3:7
REQALT:TROIA:6000

@N:BAW496G:4172:1:40.785867:-3.269178:25000:410:0:0:0
$FPBAW496G:*A:I:A319:0:LEMD:0000:0000:32000:LPPT:00:00:0:0:LPPR:/v/:CCS DCT EXONA
$ROUTE:EXONA ADSAD GODGI PT421 PESEX
DELAY:3:7
REQALT:EXONA:25000

@N:DLH451:4173:1:42.463423:-0.120036:25000:410:0:0:0
$FPDLH451:*A:I:A319:0:LEMD:0000:0000:32000:LPPT:00:00:0:0:LPPR:/v/:CCS DCT EXONA
$ROUTE:EXONA ADSAD GODGI PT421 PESEX
DELAY:3:7
REQALT:EXONA:25000

@N:RZO457:4177:1:41.710356:-1.733820:25000:410:0:0:0
$FPRZO457:*A:I:A319:0:LEMD:0000:0000:32000:LPPT:00:00:0:0:LPPR:/v/:CCS DCT EXONA
$ROUTE:EXONA ADSAD GODGI PT421 PESEX
DELAY:3:7
REQALT:EXONA:25000

@N:TAP1900:4174:1:43.537978:2.430241:25000:410:0:0:0
$FPTAP1900:*A:I:A319:0:LEMD:0000:0000:32000:LPPT:00:00:0:0:LPPR:/v/:CCS DCT EXONA
$ROUTE:EXONA ADSAD GODGI PT421 PESEX
DELAY:3:7
REQALT:EXONA:25000

@N:EJU71YA:4175:1:36.579571:-7.449708:25000:410:0:0:0
$FPEJU71YA:*A:I:A319:0:LPFR:0000:0000:32000:LPPT:00:00:0:0:LPPR:/v/:ODEMI DCT TROIA
$ROUTE:TROIA ADSAD GODGI PT421 PESEX
DELAY:3:7
REQALT:TROIA:25000

@N:TAP168A:4175:1:35.543747:-6.462030:25000:410:0:0:0
$FPTAP168A:*A:I:A319:0:GMMX:0000:0000:32000:LPPT:00:00:0:0:LPPR:/v/:ODEMI DCT TROIA
$ROUTE:TROIA ADSAD GODGI PT421 PESEX
DELAY:3:7
REQALT:TROIA:25000

@N:RYR89VD:4175:1:37.969522:-10.437256:25000:410:0:0:0
$FPRYR89VD:*A:I:A319:0:LPMA:0000:0000:32000:LPPT:00:00:0:0:LPPR:/v/:NARTA DCT UNPOT
$ROUTE:UNPOT PT418 EKMAR PT420 PT421 PESEX
DELAY:3:7
REQALT:EXONA:25000

@N:EJU87DF:4175:1:36.322189:-13.226772:25000:410:0:0:0
$FPEJU87DF:*A:I:A319:0:LPMA:0000:0000:32000:LPPT:00:00:0:0:LPPR:/v/:NARTA DCT UNPOT
$ROUTE:UNPOT PT418 EKMAR PT420 PT421 PESEX
DELAY:3:7
REQALT:EXONA:25000

@N:TAP1828:4175:1:37.223142:-11.967303:25000:410:0:0:0
$FPTAP1828:*A:I:A319:0:LPMA:0000:0000:32000:LPPT:00:00:0:0:LPPR:/v/:NARTA DCT UNPOT
$ROUTE:UNPOT PT418 EKMAR PT420 PT421 PESEX
DELAY:3:7
REQALT:EXONA:25000

@N:RYR14PC:4175:1:38.848037:-10.885008:25000:410:0:0:0
$FPRYR14PC:*A:I:A319:0:LPPD:0000:0000:32000:LPPT:00:00:0:0:LPPR:/v/:ERPES DCT BUSEN
$ROUTE:BUSEN PT418 EKMAR PT420 PT421 PESEX
DELAY:3:7
REQALT:BUSEN:25000

@N:TAP1865:4175:1:39.058205:-12.490776:25000:410:0:0:0
$FPTAP1865:*A:I:A319:0:LPPD:0000:0000:32000:LPPT:00:00:0:0:LPPR:/v/:ERPES DCT BUSEN
$ROUTE:BUSEN PT418 EKMAR PT420 PT421 PESEX
DELAY:3:7
REQALT:BUSEN:25000

@N:AJU651:2000:1:38.724755:-9.357398:374:0:0:0:0
$FPAJU651:*A:I:C550:250:LPCS:0000:0000:10000:LEMG:00:00:0:0:LXGB:/v/:ESP A5 VFA R47 SVL A44 MGA
$ROUTE:CAS CAS06 ESP TROIA ODEMI VFA SVL MGA
DELAY:3:7

@N:DGWAW:2000:1:38.723481:-9.352926:374:0:0:0:0
$FPDGWAW:*A:I:PA34:120:LPCS:0000:0000:3000:LPCS:00:00:0:0:LPPT:/v/:ESP
$ROUTE:CAS CAS06 ESP
DELAY:3:7

