INITIALPSEUDOPILOT:LPPC_M_CTR
PSEUDOPILOT:ALL

AIRPORT_ALT:10.0

ILS03:38.7662300:-9.1440519:27.0
ILS21:38.7957869:-9.1282269:207.0
ILS28:37.0134411:-7.9592831:284.0
ILS17:41.2620917:-8.6849164:173.0

HOLDING:LAR:207:1
HOLDING:FTM:221:-1
HOLDING:ESP:31:1
HOLDING:EKMAR:44:-1
HOLDING:RINOR:226:-1
HOLDING:UMUPI:182:1
HOLDING:FUSUL:352:-1
HOLDING:ABUSU:212:1
HOLDING:PILIM:212:1
HOLDING:GIMAL:9:1
HOLDING:XAPIM:353:-1
HOLDING:AKABO:173:1
HOLDING:PINIM:114:1
HOLDING:PESEX:26:1
HOLDING:ADSAD:344:1

PSEUDOPILOT:ALL
@N:EZY6591:4710:1:37.679793:-10.444309:16000:0:0:0:0
$FPEZY6591:*A:I:B737:420:LPMA:0000:0000:34000:LPPT:00:00:0:0::/v/:DEGUN DCT NARTA DCT UNPOT
SIMDATA:EZY6591:*:*:25:1:0.010
$ROUTE:UNPOT PT418 EKMAR PT420 PT421 PESEX 
DELAY:3:7
INITIALPSEUDOPILOT:LPPC_M_CTR

PSEUDOPILOT:ALL
@N:TAP2571:4774:1:38.0010550:-8.7856190:14000:0:3764:0
$FPTAP2571:*A:I:A321:420:LPFR:0000:0000:16000:LPPT:00:00:0:0::/v/:ODEMI DCT TROIA
SIMDATA:TAP2571:*:*:25:1:0.010
$ROUTE:TROIA ADSAD GODGI PT421 PESEX
DELAY:3:7
INITIALPSEUDOPILOT:LPPC_M_CTR

PSEUDOPILOT:ALL
@N:IBE294:4777:1:39.1096290:-7.4938730:23000:0:2856:0
$FPIBE294:*A:I:A320:420:LEMD:0000:0000:33000:LPPT:00:00:0:0::/v/:CCS DCT EXONA
SIMDATA:IBE294:*:*:25:1:0.010
$ROUTE:EXONA ADSAD GODGI PT421 PESEX
DELAY:3:7
INITIALPSEUDOPILOT:LPPC_M_CTR

PSEUDOPILOT:ALL
@N:TAP5981:4753:1:39.9891040:-8.4752000:17000:0:2152:0
$FPTAP5981:*A:I:A319:420:LPPR:0000:0000:17000:LPPT:00:00:0:0::/v/:MANIK DCT XAMAX
SIMDATA:TAP5981:*:*:25:1:0.010
$ROUTE:XAMAX UMUPI EKMAR PT420 PT421 PESEX
DELAY:3:7
INITIALPSEUDOPILOT:LPPC_M_CTR

PSEUDOPILOT:ALL
@N:TOM493H:4722:1:38.2325270:-7.6146470:25000:0:2120:0
$FPTOM493H:*A:I:B752:420:EGLL:0000:0000:36000:LPFR:00:00:0:0::/v/:PINEK DCT ALAGU
SIMDATA:TOM493H:*:*:25:1:0.010
$ROUTE:ALAGU ERTIS GENRO
DELAY:3:7
INITIALPSEUDOPILOT:LPPC_M_CTR

PSEUDOPILOT:ALL
@N:BAW502:0000:1:42.2878760:-8.4524420:25000:0:2296:0
$FPBAW502:*A:I:B753:420:EGLL:0000:0000:39000:LPPR:00:00:0:0::/v/:SAM UN621 MARUK UM195 LORKU UN866 BERAD UM30 VES DCT PINEK
SIMDATA:BAW502:*:*:25:1:0.010
$ROUTE:PINEK PR640 PR614 PR632 PR634 AKULU
DELAY:3:7
INITIALPSEUDOPILOT:LPPC_M_CTR

PSEUDOPILOT:ALL
@N:RZO430:4732:1:38.5259880:-10.6113980:21000:0:1060:0
$FPRZO430:*A:I:A310:420:LPPD:0000:0000:37000:LPPT:00:00:0:0::/v/:BEKUN DCT 3820N KOMUT UZ20 BUSEN
SIMDATA:RZO430:*:*:25:1:0.010
$ROUTE:BUSEN PT418 EKMAR PT420 PT421 PESEX
DELAY:3:7
INITIALPSEUDOPILOT:LPPC_M_CTR

PSEUDOPILOT:ALL
@N:BAW500:4752:1:40.3478550:-8.0167430:21000:0:2460:0
$FPBAW500:*A:I:B752:420:EGLL:0000:0000:21000:LPPT:00:00:0:0::/v/:RALUS DCT INBOM
SIMDATA:BAW500:*:*:25:1:0.010
$ROUTE:INBOM FTM PT405 ODLIX PT420 PT421 PESEX
DELAY:3:7
INITIALPSEUDOPILOT:LPPC_M_CTR

PSEUDOPILOT:ALL
@N:TAP1976:4702:1:37.6770840:-8.6328620:16000:0:1568:0
$FPTAP1976:*A:I:A321:420:LPPT:0000:0000:16000:LPFR:00:00:0:0::/v/:TROIA DCT ODEMI
SIMDATA:TAP1976:*:*:25:1:0.010
$ROUTE:ODEMI FR607 GEBTI
DELAY:3:7
INITIALPSEUDOPILOT:LPPC_M_CTR

PSEUDOPILOT:ALL
@N:RZO128:4737:1:40.4269370:-10.0712830:23500:0:664:0
$FPRZO128:*A:I:A320:420:LPPD:0000:0000:36000:LPPR:00:00:0:0::/v/:BEKUN DCT 3820N KOMUT DCT LULAS
SIMDATA:RZO128:*:*:25:1:0.010
$ROUTE:LULAS AKULU
DELAY:3:7
INITIALPSEUDOPILOT:LPPC_M_CTR

PSEUDOPILOT:ALL
@N:TAP1916:0000:1:41.3699190:-6.9329320:27500:0:3000:0
$FPTAP1916:*A:I:A320:420:LEMD:0000:0000:36000:LPPR:00:00:0:0::/v/:ADORO DCT INKIT
SIMDATA:TAP1916:*:*:25:1:0.010
$ROUTE:INKIT PR648 PR634 AKULU
DELAY:3:7
INITIALPSEUDOPILOT:LPPC_M_CTR

PSEUDOPILOT:ALL
@N:IBE3441:4733:1:41.2622120:-8.6849430:228:0:4148:0
$FPIBE3441:*A:I:A320:420:LPPR:0000:0000:36000:LEMD:00:00:0:0::/v/:IBERO DCT ADORO DCT TLD
SIMDATA:IBE3441:*:*:25:1:0.010
$ROUTE:IBERO ADORO
DELAY:3:7
INITIALPSEUDOPILOT:LPPC_M_CTR

PSEUDOPILOT:ALL
@N:TAP461:4714:1:33.0060530:-16.1465230:24000:0:552:0
$FPTAP461:*A:I:A321:420:LPMA:0000:0000:36000:LPPT:00:00:0:0::/v/:DEGUN DCT NARTA DCT UNPOT
SIMDATA:TAP461:*:*:25:1:0.010
$ROUTE:DEGUN NARTA UNPOT PT418 EKMAR PT420 PT421 PESEX
DELAY:3:7
INITIALPSEUDOPILOT:LPPC_M_CTR

PSEUDOPILOT:ALL
@N:RZO111:4714:1:32.6934880:-16.7766170:2000:0:588:0
$FPRZO111:*A:I:A310:420:LPMA:0000:0000:36000:LPPD:00:00:0:0::/v/:NIKAV DCT IRKID DCT BEKUN
SIMDATA:RZO111:*:*:25:1:0.010
$ROUTE:FUN NIKAV IRKID
DELAY:3:7
INITIALPSEUDOPILOT:LPPC_M_CTR

PSEUDOPILOT:ALL
@N:MMZ462:4732:1:34.6239450:-14.9076150:35000:0:2596:0
$FPMMZ462:*A:I:A321:420:LPPT:0000:0000:35000:LPMA:00:00:0:0::/v/:GANSU DCT LIDRO
SIMDATA:MMZ462:*:*:25:1:0.010
$ROUTE:LIDRO TOBED ABUSU
DELAY:3:7
INITIALPSEUDOPILOT:LPPC_M_CTR

PSEUDOPILOT:ALL
@N:MMZ1275:4710:1:36.6982260:-8.9769880:14000:0:1028:0
$FPMMZ1275:*A:I:B737:420:LPMA:0000:0000:34000:LPFR:00:00:0:0::/v/:SNT UN745 NARTA DCT GIMAL
SIMDATA:MMZ1275:*:*:25:1:0.010
$ROUTE:GIMAL FR614 GEBTI
DELAY:3:7
INITIALPSEUDOPILOT:LPPC_M_CTR

PSEUDOPILOT:ALL
@N:TOM1934:4715:1:37.0259020:-12.6749540:36000:0:376:0
$FPTOM1934:*A:I:B737:420:GCLP:0000:0000:36000:EGKK:00:00:0:0::/v/:ORTIS DCT DEMOS DCT STG DCT QPR
SIMDATA:TOM1934:*:*:25:1:0.010
$ROUTE:DEMOS STG QPR
DELAY:3:7
INITIALPSEUDOPILOT:LPPC_M_CTR

PSEUDOPILOT:ALL
@N:TOM2197:4716:1:36.7432660:-12.7888660:36000:0:372:0
$FPTOM2197:*A:I:B737:420:GCRR:0000:0000:36000:EGLL:00:00:0:0::/v/:ORTIS DCT DEMOS DCT STG DCT QPR
SIMDATA:TOM2197:*:*:25:1:0.010
$ROUTE:DEMOS STG QPR
DELAY:3:7
INITIALPSEUDOPILOT:LPPC_M_CTR

PSEUDOPILOT:ALL
@N:IBE182:4777:1:39.6457440:-6.1828760:38000:0:2804:0
$FPIBE182:*A:I:A320:420:LEMD:0000:0000:38000:TNCM:00:00:0:0::/v/:CCS DCT ELVAR DCT KOMUT
SIMDATA:IBE182:*:*:25:1:0.010
$ROUTE:CCS ELVAR KOMUT
DELAY:3:7
INITIALPSEUDOPILOT:LPPC_M_CTR

PSEUDOPILOT:ALL
@N:RZO1874:4732:1:40.9464050:-15.6738120:37000:0:1020:0
$FPRZO1874:*A:I:A310:420:LPPD:0000:0000:37000:EGKK:00:00:0:0::/v/:DETOX DCT PETEK
SIMDATA:RZO1874:*:*:25:1:0.010
$ROUTE:DETOX PETEK
DELAY:3:7
INITIALPSEUDOPILOT:LPPC_M_CTR

PSEUDOPILOT:ALL
@N:SUR1825:4732:1:39.1013860:-16.8501300:37000:0:1128:0
$FPSUR1825:*A:I:A333:420:TNCM:0000:0000:37000:LEMD:00:00:0:0::/v/:GUNTI DCT OGERO UH90 TLD
SIMDATA:SUR1825:*:*:25:1:0.010
$ROUTE:GUNTI OGERO TLD
DELAY:3:7
INITIALPSEUDOPILOT:LPPC_M_CTR

PSEUDOPILOT:ALL
@N:JVA915:4732:1:37.5104340:-16.6580470:37000:0:852:0
$FPJVA915:*A:I:A333:420:LPAZ:0000:0000:37000:LECO:00:00:0:0::/v/:KOMUT DCT LULAS DCT PINEK
SIMDATA:JVA915:*:*:25:1:0.010
$ROUTE:KOMUT LULAS PINEK
DELAY:3:7
INITIALPSEUDOPILOT:LPPC_M_CTR

PSEUDOPILOT:ALL
@N:EZY182E:4732:1:37.5090150:-5.9856960:29000:0:2944:0
$FPEZY182E:*A:I:A333:420:LEMG:0000:0000:37000:LPFR:00:00:0:0::/v/:MINTA DCT GEBTI
SIMDATA:EZY182E:*:*:25:1:0.010
$ROUTE:MINTA GEBTI
DELAY:3:7
INITIALPSEUDOPILOT:LPPC_M_CTR

PSEUDOPILOT:ALL
@N:THY981:4732:1:36.4911320:-16.6002040:36000:0:1280:0
$FPTHY981:*A:I:A333:420:SBBR:0000:0000:36000:LEMG:00:00:0:0::/v/:MANOX DCT NARTA DCT TUPIX
SIMDATA:THY981:*:*:25:1:0.010
$ROUTE:MANOX NARTA TUPIX
DELAY:3:7
INITIALPSEUDOPILOT:LPPC_M_CTR

PSEUDOPILOT:ALL
@N:VLG294:0000:1:41.7574070:-4.7327280:37000:0:2960:0
$FPVLG294:*A:I:A320:420:LEMD:0000:0000:36000:MDPC:00:00:0:0::/v/:ZMR DCT ADORO DCT ERPES
SIMDATA:VLG294:*:*:25:1:0.010
$ROUTE:ZMR ADORO ERPES
DELAY:3:7
INITIALPSEUDOPILOT:LPPC_M_CTR

PSEUDOPILOT:ALL
@N:EZY1935:4732:1:35.2360040:-14.1459080:33000:0:2616:0
$FPEZY1935:*A:I:A321:420:LPPT:0000:0000:33000:LPMA:00:00:0:0::/v/:GANSU DCT LIDRO
SIMDATA:EZY1935:*:*:25:1:0.010
$ROUTE:LIDRO TOBED ABUSU
DELAY:3:7
INITIALPSEUDOPILOT:LPPC_M_CTR

PSEUDOPILOT:ALL
@N:IBE563:2200:1:38.7749550:-9.1313300:0:0:532:0
$FPIBE563:*A:I:A333:420:LPPT:0000:0000:31000:LEMD:00:00:0:0::/v/:IDBID DCT OGERO DCT TLD
SIMDATA:IBE563:*:*:25:1:0.010
$ROUTE:PT412 IDBID OGERO
DELAY:3:7
INITIALPSEUDOPILOT:LPPC_M_CTR

PSEUDOPILOT:ALL
@N:RZO4589:2200:1:38.7651850:-9.1368540:0:0:276:0
$FPRZO4589:*A:I:A310:420:LPPT:0000:0000:36000:LPPD:00:00:0:0::/v/:BUSEN UZ20 KOMUT DCT 3820N DCT BEKUN DCT NAVPO
SIMDATA:RZO4589:*:*:25:1:0.010
$ROUTE:PT544 PT412 MONUR BUSEN KOMUT
DELAY:3:7
INITIALPSEUDOPILOT:LPPC_M_CTR

PSEUDOPILOT:ALL
@N:COA64:2200:1:38.7686990:-9.1392340:0:0:300:0
$FPCOA64:*A:I:B752:420:LPPT:0000:0000:40000:KEWR:00:00:0:0::/v/:BUSEN DCT ERPES DCT 4120N DCT 4130N DCT 4140N DCT 4150N DCT 4160N DCT DOVEY N18C SAILE DCT BOS DCT BDL SHAFF6
SIMDATA:COA64:*:*:25:1:0.010
$ROUTE:PT544 PT412 MONUR EKMAR BUSEN ERPES
DELAY:3:7
INITIALPSEUDOPILOT:LPPC_M_CTR

PSEUDOPILOT:ALL
@N:EZY189T:2200:1:37.0190000:-7.9663000:0:0:4092:0
$FPEZY189T:*A:I:B752:420:LPFR:0000:0000:38000:EGKK:00:00:0:0::/v/:SOTEX DCT PINEK DCT STG
SIMDATA:EZY189T:*:*:25:1:0.010
$ROUTE:SOTEX PINEK STG
DELAY:3:7
INITIALPSEUDOPILOT:LPPC_M_CTR