PSEUDOPILOT:ALL

AIRPORT_ALT:227.0

ILS35:41.2339072:-8.6775443:41.2606785:-8.6845467
ILS17:41.2606766:-8.6845511:41.2338935:-8.6775339
ILS35TO:41.2326102:-8.6771989:41.2606698:-8.6845520
ILS:41.2338938:-8.6775422:360.0

PSEUDOPILOT:LPPR_APP
@N:BCS1929:0000:1:41.2380940:-8.6851320:227:0:2944:0
$FPBCS1929:*A:I:A306:420:LPPR:0000:0000:24000:EBBR:00:00:0:0::PBN/A1B3B4B5D4 REG/DAEAQ EET/LECM0012 LFFF0040 EBBU0201 SEL/BHQR OPR/DHK RVR/075 RMK/TCAS OPS:N0395F240 TURON A5 ASDEB/N0444F360 DCT LOTEE/N0445F380 UN741 ERIGA DCT GODIX/N0445F340 DCT PODEM UN873 VEKIN UZ173 ARVOL
SIMDATA:BCS1929:*:*:25:1:0.010
$ROUTE:UDRUB PR674 TURON ASDEB LOTEE NOVAN ERIGA GODIX VEKIN ARVOL
DELAY:3:7
REQALT::24000
INITIALPSEUDOPILOT:LPPR_APP

PSEUDOPILOT:LPPR_APP
@N:SRR6645:0000:1:41.2362400:-8.6846590:227:0:2944:0
$FPSRR6645:*A:I:B762:420:LPPR:0000:0000:39000:EDDK:00:00:0:0::PBN/B3B4B5C4D4 COM/CPDLC REG/OYSRL EET/LECM0008 LFRR0042 LFFF0121 EBBU0153 EBBU0158 EDGG0158 EDGG0204 SEL/AFCQ CODE/45CE4C RVR/75 OPR/SRR ORGN/EKBICPUF:N0457F390 TURON A5 ASDEB DCT LOTEE UN741 MOKOR/N0462F340 UN873 OBATO UM163 TSU UN858 RANUX/N0474F290 UN858 VALEK UM163 DIK N853 ARCKY T853 IBESA T860 ERUKI T856 DEPOK
SIMDATA:SRR6645:*:*:25:1:0.010
$ROUTE:UDRUB PR674 TURON ASDEB LOTEE NOVAN ERIGA MOKOR OLEBA BAKUL ARDOD OBATO TABOV TSU UTELA RANUX MEDOX VALEK LUTAX DIK ARCKY IBESA LEDMU ERUKI DEPOK
DELAY:3:7
REQALT::24000
INITIALPSEUDOPILOT:LPPR_APP

PSEUDOPILOT:LPPR_APP
@N:TAY4346:0000:1:41.2402340:-8.6763710:227:0:2944:0
$FPTAY4346:*A:I:B738:420:LPPR:0000:0000:24000:LFPG:00:00:0:0::PBN/A1B1C1D1O1S2 NAV/RNVD1E2A1 REG/OEIXH EET/LECM0009 LFFF0036 CODE/440CED OPR/ASL AIRLINES BELGIUM:N0385F240 TURON UP600 ASDEB/N0430F340 DCT LOTEE UN741 NTS/N0405F300 UN741 ANG/N0395F280 UN741 TEMTO/N0378F240 UN741 KEPER
SIMDATA:TAY4346:*:*:25:1:0.010
$ROUTE:UDRUB PR674 TURON ASDEB LOTEE TEMTO KEPER
DELAY:3:7
REQALT::24000
INITIALPSEUDOPILOT:LPPR_APP

PSEUDOPILOT:LPPR_APP
@N:CSAUD:0000:1:41.2419049:-8.6768619:227:0:864:0
$FPCSAUD:*A:V:C172:420:LPPR:0000:0000:1000:LPPR:00:00:0:0::RMK/REQ VFR CIRCUITS LPPR /v/:DCT PORTO DCT
SIMDATA:CSAUD:*:*:25:1:0.010
$ROUTE:FOURO 
DELAY:3:7
REQALT::1600
INITIALPSEUDOPILOT:LPPR_APP

PSEUDOPILOT:LPPR_APP
@N:LGL32P:0000:1:41.2349710:-8.6747970:227:0:2944:0
$FPLGL32P:*A:I:B737:420:LPPR:0000:0000:36000:ELLX:00:00:0:0::PBN/A1B1C1D1O1S1S2  REG/LXLBA SEL/BQER CODE/4D00F4 RVR/200 OPR/LUXAIR RALT/LFPG:N0432F360 TURON UP600 ASDEB DCT LOTEE DCT AZFIC UN741 MOKOR UN873 ARDOD/N0423F340 UN873 OBATO/N0411F320 UM163 MMD
SIMDATA:LGL32P:*:*:25:1:0.010
$ROUTE:UDRUB PR674 TURON ASDEB LOTEE NOVAN ERIGA MOKOR OLEBA BAKUL ARDOD OBATO TABOV TSU CTL MMD
DELAY:3:7
REQALT::24000
INITIALPSEUDOPILOT:LPPR_APP

PSEUDOPILOT:LPPR_APP
@N:TDR9321:0000:1:41.2368750:-8.6753710:227:0:2944:0
$FPTDR9321:*A:I:A320:420:LPPR:0000:0000:12000:LJLJ:00:00:0:0::PBN/A1B1C1D1L1O1S2  REG/9ABTH EET/LECM0022 LFBB0100 LFMM0123 LIMM0145 LOVV0218 LIMM0222 LJLA0225 SEL/CLFS CODE/501D0A RVR/075 IFP/MODESASP OPR/TDR ORGN/EKBICPUF PER/C:N0299F120 BELDU A43 CANAR/N0448F380 A43 ADORO UL155 ZMR UN976 DGO/N0448F370 UT429 LPA/N0447F380 UT429 TOPTU/N0447F370 DCT TOU/N0446F380 DCT GAI/N0447F370 DCT MEN DCT NINUN UN871 LATAM UL55 ROMAM/N0445F380 UL55 NEDRU/N0445F370 UL55 BLONA Y11 LAPRI/N0444F380 DCT MOGBO/N0445F370 DCT T
SIMDATA:TDR9321:*:*:25:1:0.010
$ROUTE:UDRUB PR614 PR656 BELDU CANAR ADORO ZMR NEA DGO LPA TOU GAI MEN MEZIN LATAM ROMAM ETIDO NEDRU RILIP BLONA LAPRI
DELAY:3:7
REQALT::32000
INITIALPSEUDOPILOT:LPPR_APP

PSEUDOPILOT:LPPR_APP
@N:TVF7758:0000:1:41.2364000:-8.6723950:227:0:884:0
$FPTVF7758:*A:I:B738:420:LPPR:0000:0000:39000:LPMA:00:00:0:0::PBN/A1B1C1D1O1S2 SUR/260B REG/FHUYM SEL/ESAL CODE/39D30C OPR/TVF PER/C RVR/200 RMK/TCAS CALLSIGN FRANCE SOLEIL :N0449F390 ASMOV DCT DIRMA DCT TUNAV DCT VERAM DCT LIDRO
SIMDATA:TVF7758:*:*:25:1:0.010
$ROUTE:UDRUB PR613 ASMOV DIRMA TUNAV VERAM LIDRO MA536 MA534 PILIM MA563 MA564 MA565 MA566 BTURN GELO ROSRO ILS05
DELAY:3:7
REQALT::39000
INITIALPSEUDOPILOT:LPPR_APP

PSEUDOPILOT:LPPR_APP
@N:AEA47KA:0000:1:41.2350900:-8.6729420:227:0:1284:0
$FPAEA47KA:*A:I:B738:420:LPPR:0000:0000:28000:LEMD:00:00:0:0::PBN/A1B1C1D1O2S2 NAV/RNP2 REG/ECLUT EET/LECM0017 SEL/KPCM CODE/344446 OPR/AEA PER/C RVR/200 RMK/TCAS CPY LEPAAEA:N0388F280 BELDU DCT CANAR DCT ADORO UL155 ZMR
SIMDATA:AEA47KA:*:*:25:1:0.010
$ROUTE:UDRUB PR614 PR656 BELDU CANAR ADORO ZMR
DELAY:3:7
REQALT::28000
INITIALPSEUDOPILOT:LPPR_APP

PSEUDOPILOT:LPPR_APP
@N:TAP1949:0000:1:41.2368650:-8.6725170:227:0:884:0
$FPTAP1949:*A:I:E195:420:LPPR:0000:0000:25000:LPPT:00:00:0:0::PBN/A1B1D1L1O1S2 NAV/RNP2 REG/CSTTZ SEL/DMBR CODE/49529A OPR/PGA PER/C RVR/200 RMK/TCAS :N0409F250 MANIK DCT XAMAX
SIMDATA:TAP1949:*:*:25:1:0.010
$ROUTE:UDRUB PR613 PR633 MANIK XAMAX BADUM UMUPI PINIM PT414 EKMAR PT420 PT421 PT422 PESEX NETVO OKNIB MM02 ILS02
DELAY:3:7
REQALT::23000
INITIALPSEUDOPILOT:LPPR_APP

PSEUDOPILOT:LPPR_APP
@N:RYR15WU:0000:1:41.2379310:-8.6736460:227:0:544:0
$FPRYR15WU:*A:I:B738:420:LPPR:0000:0000:33000:LPPD:00:00:0:0::PBN/A1B1B5D1D3L1O1S2 NAV/RNP2 COM/TCAS SUR/RSP180 REG/EIGXH EET/LPPO0054 LENSI0127 BEKUN0148 SM6180203 XUVAP0205 CODE/4CAFC3 OPR/RYR PER/C RALT/LPPT LPAZ RVR/200:N0420F330 ASMOV DCT DIRMA DCT VEDEL DCT PIGOR DCT GUNTI/M077F380 T25 LENSI/M073F360 DCT BEKUN
SIMDATA:RYR15WU:*:*:25:1:0.010
$ROUTE:UDRUB PR613 ASMOV DIRMA VEDEL PIGOR GUNTI LENSI BEKUN
DELAY:3:7
REQALT::33000
INITIALPSEUDOPILOT:LPPR_APP

PSEUDOPILOT:LPPR_APP
@N:EJU82XF:0000:1:41.2405750:-8.6731780:227:0:884:0
$FPEJU82XF:*A:I:A320:420:LPPR:0000:0000:28000:LEMD:00:00:0:0::PBN/A1B1C1D1O1S2  REG/OEIJH EET/LECM0019  RVR/125 OPR/EJU ORGN/LEMDIBED :N0464F280 BELDU UL155 CANAR DCT ADORO UL155 ZMR
SIMDATA:EJU82XF:*:*:25:1:0.010
$ROUTE:UDRUB PR614 PR656 BELDU CANAR ADORO ZMR
DELAY:3:7
REQALT::28000
INITIALPSEUDOPILOT:LPPR_APP

PSEUDOPILOT:LPPR_APP
@N:IFJ319:4735:1:40.7614280:-8.0659920:6500:0:3576:0
$FPIFJ319:*A:I:C172:420:LPVZ:0000:0000:0:LPVZ:00:00:0:0::RMK/REQ TG AT LPBR AND LOW APP LPPR /v/:DCT SPSUL DCT CREST/N0100A020 DCT ALFEN DCT FAMAL DCT BELOS DCT BRAGA DCT CELOB DCT VREAL DCT
SIMDATA:IFJ319:*:*:25:1:0.010
$ROUTE:CREST ALFEN FAMAL BELOS LPBR CELOB VREAL VIS
DELAY:3:7
REQALT:CREST:2000
INITIALPSEUDOPILOT:LPPR_APP

PSEUDOPILOT:LPPR_APP
@N:TAP433:4775:1:40.9510186:-8.6264075:3000:0:208:0
$FPTAP433:*A:I:A320:420:LPPT:::3000:LPPR:00:00:0:0:::DCT AKULU DCT
SIMDATA:TAP433:*:*:25:1:0.010
$ROUTE:AKULU PR541 PR542 ILS35
DELAY:1:2
REQALT:PR542:3000
INITIALPSEUDOPILOT:LPPR_APP

PSEUDOPILOT:LPPR_APP
@N:RYR288:4766:1:40.7778098:-8.4758112:3000:0:3848:0
$FPRYR288:*A:I:B738:420::::3000:LPPR:00:00:0:0:::DCT AKULU DCT
SIMDATA:RYR288:*:*:25:1:0.010
$ROUTE:PR542 ILS35 
DELAY:1:2
REQALT:PR542:3000
INITIALPSEUDOPILOT:LPPR_APP

PSEUDOPILOT:LPPR_APP
@N:EZY28AV:0000:1:41.2341530:-8.6719470:227:0:432:0
$FPEZY28AV:*A:I:A320:420:LPPR:0000:0000:24000:EGGD:00:00:0:0::PBN/A1B1C1D1O1S2 DAT/V NAV/RNP2  REG/GEZOU EET/LECM0014 LFFF0041 EGTT0126 SEL/DHLP CODE/406E66 OPR/EZY PER/C RVR/075 RMK/TCAS:N0379F240 TURON UP600 ASDEB/N0425F340 DCT KORUL DCT EBOMO DCT SALCO UN864 DAWLY
SIMDATA:EZY28AV:*:*:25:1:0.010
$ROUTE:UDRUB PR674 TURON ASDEB KORUL SALCO BHD DAWLY
DELAY:3:7
REQALT::24000
INITIALPSEUDOPILOT:LPPR_APP

PSEUDOPILOT:LPPR_APP
@N:DISCO:0000:1:41.2412503:-8.6766630:227:0:2948:0
$FPDISCO:*A:I:D28D:420:LPPR:::10000:LEVX:00:00:0:0::RMK/UNABLE RNAV PROCEDURES:DCT TURON DCT
SIMDATA:DISCO:*:*:25:1:0.010
$ROUTE:PRT 20PRT/10000 TURON
DELAY:1:2
REQALT::10000
INITIALPSEUDOPILOT:LPPR_APP

PSEUDOPILOT:LPPR_APP
@N:NJE617N:0000:1:41.2379058:-8.6755904:227:0:2956:0
$FPNJE617N:*A:I:E55P:420:LPPR:::43000:LGKL:00:00:0:0::PBN/A1B2D2S2 REG/CSPHV EET/LECM0022 LECB0108 LFMM0154 LIRR0222 LIBB0331 LIRR0352 LGGG0356 CODE/494116 OPR/NJE PER/B :N0308F430 BELDU DCT BARDI/N0310F430 UM191 KALMA/N0307F430 UL155 NVS/N0334F400 UM871 MABUX UT257 LASPO UM871 PTC UN851 MHN UM603 ELSAG DCT ALG/N0341F430 DCT VAVAX DCT IDEPA DCT ADRUX DCT UREXE DCT ROMPO/N0321F400 DCT RUXOP DCT BATOX/N0328F410 DCT DINOB UM600 KRK UL53 GARTA UV60 ARA A14 TRL
SIMDATA:NJE617N:*:*:25:1:0.010
$ROUTE:UDRUB PR614 PR656 BELDU BARDI RIDAV DIPOL KALMA NVS NANDO MINGU ABOSI MABUX LASPO ORVUS GODOX EDULI PTC MHN MORSS RIPAL INPEK BAVON ORKUM ELSAG ALG VAVAX IDEPA ADRUX ROMPO RUXOP BATOX DINOB IDIMI KRK PARNA GARTA ARA TRL
DELAY:1:2
REQALT::43000
INITIALPSEUDOPILOT:LPPR_APP

PSEUDOPILOT:LPPR_APP
@N:N50VG:0000:1:41.2408783:-8.6766370:227:0:896:0
$FPN50VG:*A:V:SF50:420:LPPR:::1400:LPVL:00:00:0:0::PBN/B2C2D2S1 :DCT BOTIK DCT JUMBO/N0150A016 DCT ALFEN DCT
SIMDATA:N50VG:*:*:25:1:0.010
$ROUTE:BOTIK JUMBO ALFEN
DELAY:1:2
REQALT::1400
INITIALPSEUDOPILOT:LPPR_APP

PSEUDOPILOT:LPPR_APP
@N:VLG6FK:4776:1:40.8601713:-8.6257011:3000:0:4064:0
$FPVLG6FK:*A:I:A320:420:LEBL:::3000:LPPR:00:00:0:0:::AKULU
SIMDATA:VLG6FK:*:*:25:1:0.010
$ROUTE:PR542 ILS35
START:5
DELAY:1:2
REQALT:PR542:3000
INITIALPSEUDOPILOT:LPPR_APP

PSEUDOPILOT:LPPR_APP
@N:EWG66WU:4776:1:40.8619320:-8.6333562:3000:0:4076:0
$FPEWG66WU:*A:I:A319:420:EDDL:::3000:LPPR:00:00:0:0:::
SIMDATA:EWG66WU:*:*:25:1:0.010
$ROUTE:PR542 ILS35
START:8
DELAY:1:2
REQALT:PR542:3000
INITIALPSEUDOPILOT:LPPR_APP

PSEUDOPILOT:LPPR_APP
@N:THY7AD:4776:1:40.8698555:-8.4890035:3000:0:3788:0
$FPTHY7AD:*A:I:B738:420:LTFM:::3000:LPPR:00:00:0:0:::AKULU
SIMDATA:THY7AD:*:*:25:1:0.010
$ROUTE:PR542 ILS35
START:12
DELAY:1:2
REQALT:PR542:3000
INITIALPSEUDOPILOT:LPPR_APP

PSEUDOPILOT:LPPR_APP
@N:KLM1711:4776:1:40.8575301:-8.6289819:3000:0:4068:0
$FPKLM1711:*A:I:E190:420:EHAM:::0:LPPR:00:00:0:0:::AKULU
SIMDATA:KLM1711:*:*:25:1:0.010
$ROUTE:PR542 ILS35
START:17
DELAY:1:2
REQALT:PR542:3000
INITIALPSEUDOPILOT:LPPR_APP

PSEUDOPILOT:LPPR_APP
@N:SWR2066:4776:1:40.8654536:-8.6497599:3000:0:16:0
$FPSWR2066:*A:I:E290:420:LSZH:::0:LPPR:00:00:0:0:::AKULU
SIMDATA:SWR2066:*:*:25:1:0.010
$ROUTE:PR542 ILS35
START:20
DELAY:1:2
REQALT:PR542:3000
INITIALPSEUDOPILOT:LPPR_APP

PSEUDOPILOT:LPPR_APP
@N:RZO172:4776:1:40.8716162:-8.4977522:3000:0:3800:0
$FPRZO172:*A:I:A21N:420:LPPD:::0:LPPR:00:00:0:0:::AKULU
SIMDATA:RZO172:*:*:25:1:0.010
$ROUTE:PR542 ILS35
START:25
DELAY:1:2
REQALT:PR542:3000
INITIALPSEUDOPILOT:LPPR_APP

PSEUDOPILOT:LPPR_APP
@N:BAW516:4776:1:40.8504871:-8.6869417:3000:0:92:0
$FPBAW516:*A:I:A320:420:EGLL:::0:EHAM:00:00:0:0:::AKULU
SIMDATA:BAW516:*:*:25:1:0.010
$ROUTE:PR542 ILS35
START:30
DELAY:1:2
REQALT:PR542:3000
INITIALPSEUDOPILOT:LPPR_APP

PSEUDOPILOT:LPPR_APP
@N:BBO24H:4776:1:40.9440546:-8.6594750:2000:0:4088:0
$FPBBO24H:*A:V:A139:420:LPVZ:::5000:LPVZ:00:00:0:0::STS/HOSP RMK/MEDICAL TRANSPORT FROM LPAG TO LPPH :DCT HALBG DCT HOMAT DCT
SIMDATA:BBO24H:*:*:25:1:0.010
$ROUTE:HOMAT 
START:3
DELAY:1:2
REQALT:FOURO:2000
INITIALPSEUDOPILOT:LPPR_APP

