PSEUDOPILOT:ALL

AIRPORT_ALT:355.0

ILS20TO:38.7972945:-9.1273961:38.7657282:-9.1442693
ILS20:38.7888430:-9.1319138:38.7664374:-9.1438956
ILS02:38.7696176:-9.1421968:38.7923355:-9.1300476
ILS02TO:38.7657143:-9.1443136:38.7923221:-9.1300562

HOLDING:ODIVL:205:1
HOLDING:ALGES:205:1
HOLDING:PNACO:205:-1
HOLDING:AMDRA:205:1

PSEUDOPILOT:LPPT_APP
CONTROLLER:LPCS_TWR:120.300

PSEUDOPILOT:LPPT_APP
@N:BBO319:0000:1:38.8750763:-9.1950239:1600:0:1932:0
$FPBBO319:*A:V:AS32:420:LPSA:::1500:LPSA:00:00:0:0::RMK/TRAINING IN VICINITY OF CITY:DCT LSBOA DCT
SIMDATA:BBO319:*:*:25:1:0.010
$ROUTE:ODIVL 
DELAY:1:2
REQALT:ODIVL:1500
INITIALPSEUDOPILOT:LPPT_APP

PSEUDOPILOT:LPPT_APP
@N:CSCDK:0000:1:38.7786380:-9.1328496:550:0:876:0
$FPCSCDK:*A:V:BE36:420:LPPT:::1500:LPPT:00:00:0:0::RMK/REQ CIRCUITS THEN INST APPROACHES:DCT LSBOA/N0140A040 IFR DCT LIS DCT
SIMDATA:CSCDK:*:*:25:1:0.010
$ROUTE:ALENQ 
DELAY:1:2
REQALT::1500
INITIALPSEUDOPILOT:LPPT_APP

PSEUDOPILOT:LPPT_APP
@N:CSDPS:5241:1:38.7075442:-9.3028112:1600:0:1100:0
$FPCSDPS:*A:V:C404:420:LPCS:::1500:LPCS:00:00:0:0::RMK/REQ VFR CIRCUITS LPPT:DCT ALGES DCT LSBOA DCT ALGES DCT
SIMDATA:CSDPS:*:*:25:1:0.010
$ROUTE:ALGES LSBOA ALGES
DELAY:1:2
REQALT:ALGES:1500
INITIALPSEUDOPILOT:LPPT_APP

PSEUDOPILOT:LPPT_APP
@N:GCGSP:0000:1:38.7779810:-9.1326565:550:0:860:0
$FPGCGSP:*A:V:C152:420:LPPT:::1500:LPCS:00:00:0:0:::DCT ALGES DCT
SIMDATA:GCGSP:*:*:25:1:0.010
$ROUTE:ALGES 
DELAY:1:2
REQALT::1500
INITIALPSEUDOPILOT:LPPT_APP

PSEUDOPILOT:LPPT_APP
@N:IFJ851:0000:1:38.7783044:-9.1327775:550:0:888:0
$FPIFJ851:*A:V:C172:420:LPPT:::1500:LPPT:00:00:0:0::RMK/REQ CIRCUITS:DCT LSBOA DCT
SIMDATA:IFJ851:*:*:25:1:0.010
$ROUTE:ALENQ 
DELAY:1:2
REQALT::1500
INITIALPSEUDOPILOT:LPPT_APP

PSEUDOPILOT:LPPT_APP
@N:TAP839:4704:1:40.0700097:-7.8672500:4000:0:2508:0
$FPTAP839:*A:I:A320:420:LIRF:0000:0000:35000:LPPT:00:00:0:0::/v/:ESINO UZ924 RIPAL UM603 MHN UN851 MJV UN733 CJN UN975 MELON UN975 ELVAR/N0442F330 DCT EXONA
SIMDATA:TAP839:*:*:25:1:0.010
$ROUTE:LAR UPKAT ILS20 
DELAY:3:7
REQALT:UPKAT:4000
INITIALPSEUDOPILOT:LPPT_APP

PSEUDOPILOT:LPPT_APP
@N:THY1759:4705:1:40.5008467:-7.3666705:4000:0:2512:0
$FPTHY1759:*A:I:B738:420:LTBA:0000:0000:38000:LPPT:00:00:0:0::/v/:GOLDO UN79 PINDO UM603 PNZ/N0450F370 UM603 POKAV UY567 USEPI UZ924 RIPAL/N0450F360 UM603 MORSS/N0450F370 UM603 MHN UN851 MJV/N0450F360 UN861 ADX/N0450F310 UH300 CLS UN733 CJN UN975 CCS/N0440F330 UN975 ELVAR/N0440F330 DCT EXONA
SIMDATA:THY1759:*:*:25:1:0.010
$ROUTE:LAR UPKAT ILS20 
DELAY:3:7
REQALT:UPKAT:4000
INITIALPSEUDOPILOT:LPPT_APP

PSEUDOPILOT:LPPT_APP
@N:KLM1693:4707:1:39.3127839:-8.7300032:4000:0:2468:0
$FPKLM1693:*A:I:B737:420:EHAM:0000:0000:37000:LPPT:00:00:0:0::/v/:LEKKO UN872 MEDIL UQ237 LMG UN10 ENSAC UP181 NEA UL14 ELVAR
SIMDATA:KLM1693:*:*:25:1:0.010
$ROUTE:LAR UPKAT ILS20 
DELAY:3:7
REQALT:UPKAT:4000
INITIALPSEUDOPILOT:LPPT_APP

PSEUDOPILOT:LPPT_APP
@N:EIN484:4711:1:39.6393781:-8.3579839:4000:0:2496:0
$FPEIN484:*A:I:A320:420:EIDW:0000:0000:37000:LPPT:00:00:0:0::/v/:BEPAN P620 BANBA UP620 LND UT7 KORUL UN866 STG UN726 NARBO DCT XAMAX
SIMDATA:EIN484:*:*:25:1:0.010
$ROUTE:LAR UPKAT ILS20 
DELAY:3:7
REQALT:UPKAT:4000
INITIALPSEUDOPILOT:LPPT_APP

PSEUDOPILOT:LPPT_APP
@N:DLH1790:4712:1:39.9291276:-8.0280053:4000:0:2504:0
$FPDLH1790:*A:I:A321:420:EDDM:0000:0000:37000:LPPT:00:00:0:0::/v/:ALG Y109 MILKA Y100 TRA DCT OLBEN UN869 TBO UN995 PPN UN976 NINOS DCT INBOM
SIMDATA:DLH1790:*:*:25:1:0.010
$ROUTE:LAR UPKAT ILS20 
DELAY:3:7
REQALT:UPKAT:4000
INITIALPSEUDOPILOT:LPPT_APP

PSEUDOPILOT:LPPT_APP
@N:RAM980:0316:1:40.2141680:-7.7024251:4000:0:2508:0
$FPRAM980:*A:I:B738:420:GMMN:0000:0000:38000:LPPT:00:00:0:0::/v/:ODAXA UH899 IBALU UR724 OSLAD DCT TROIA
SIMDATA:RAM980:*:*:25:1:0.010
$ROUTE:LAR UPKAT ILS20 
DELAY:3:7
REQALT:UPKAT:4000
INITIALPSEUDOPILOT:LPPT_APP

